{
  "name": "account",
  "plural": "accounts",
  "base": "User",
  "idInjection": true,
  "options": {
    "validateUpsert": true
  },
  "properties": {
    "displayName": {
      "type": "string",
      "required": true
    }
  },
  "validations": [],
  "relations": {
    "productReviews": {
      "type": "hasMany",
      "model": "productReview",
      "foreignKey": "reviewerID"
    },
    "shopReviews": {
      "type": "hasMany",
      "model": "shopReview",
      "foreignKey": "reviewerID"
    },
    "productPrices": {
      "type": "hasMany",
      "model": "productPrice",
      "foreignKey": "accountID"
    }
  },
  "acls": [],
  "methods": {}
}
